Tidy Lyrical Analysis
…
```r
channel_orange <- genius_album("Frank Ocean", "channel ORANGE")
```

```
## Joining, by = c("track_title", "track_n", "track_url")
```

```r
channel_orange
```

```
## # A tibble: 729 x 4
##    track_title      track_n lyric                                     line
##    <chr>              <int> <chr>                                    <int>
##  1 Start                  1 They look like twins                         1
##  2 Start                  1 That was embarrassing                        2
##  3 Thinkin Bout You       2 A tornado flew around my room before yo…     1
##  4 Thinkin Bout You       2 Excuse the mess it made, it usually doe…     2
##  5 Thinkin Bout You       2 Southern California, much like Arizona       3
##  6 Thinkin Bout You       2 My eyes don't shed tears, but boy, they…     4
##  7 Thinkin Bout You       2 I'm thinkin' 'bout you (Ooh no, no, no)      5
##  8 Thinkin Bout You       2 I've been thinkin' bout you (You know, …     6
##  9 Thinkin Bout You       2 I've been thinkin' bout you, do you thi…     7
## 10 Thinkin Bout You       2 Do ya, do ya?                                8
## # ... with 719 more rows
```
…
# Let's get tidy (tokenization)

* Individual unit of speech or writing.
* `unigram == word`

```r
orange_words <- channel_orange %>% 
  unnest_tokens(word, lyric)

orange_words
```

```
## # A tibble: 4,605 x 4
##    track_title      track_n  line word        
##    <chr>              <int> <int> <chr>       
##  1 Start                  1     1 they        
##  2 Start                  1     1 look        
##  3 Start                  1     1 like        
##  4 Start                  1     1 twins       
##  5 Start                  1     2 that        
##  6 Start                  1     2 was         
##  7 Start                  1     2 embarrassing
##  8 Thinkin Bout You       2     1 a           
##  9 Thinkin Bout You       2     1 tornado     
## 10 Thinkin Bout You       2     1 flew        
## # ... with 4,595 more rows
```
---

# Most common words?

```r
orange_words %>% 
  count(word) %>%
  arrange(-n)
```

```
## # A tibble: 1,110 x 2
##    word      n
##    <chr> <int>
##  1 the     215
##  2 you     152
##  3 i       112
##  4 a        94
##  5 my       83
##  6 and      77
##  7 to       75
##  8 in       68
##  9 me       57
## 10 love     48
## # ... with 1,100 more rows
```

---

##_"the"_ & _"a"_ are uniformative!

- These are *stop words*: words with little meaning
- We can remove them before an analysis to focus on _"important"_ words

```r
get_stopwords()
```

```
## # A tibble: 175 x 2
##    word      lexicon 
##    <chr>     <chr>   
##  1 i         snowball
##  2 me        snowball
##  3 my        snowball
##  4 myself    snowball
##  5 we        snowball
##  6 our       snowball
##  7 ours      snowball
##  8 ourselves snowball
##  9 you       snowball
## 10 your      snowball
## # ... with 165 more rows
```
…
```
## Joining, by = "word"
```

```r
orange_counts
```

```
## # A tibble: 981 x 2
##    word        n
##    <chr>   <int>
##  1 love       48
##  2 girl       31
##  3 working    29
##  4 got        28
##  5 lost       28
##  6 know       27
##  7 pyramid    27
##  8 like       25
##  9 run        22
## 10 life       20
## # ... with 971 more rows
```
…
## Sentiment

* Words have meaning and associations
* Sentiment is a feeling or emotion
* There are many attempts to quantify this in words

.pull-left[

```r
get_sentiments("afinn")
```

```
## # A tibble: 2,476 x 2
##    word       score
##    <chr>      <int>
##  1 abandon       -2
##  2 abandoned     -2
##  3 abandons      -2
##  4 abducted      -2
##  5 abduction     -2
##  6 abductions    -2
##  7 abhor         -3
##  8 abhorred      -3
##  9 abhorrent     -3
## 10 abhors        -3
## # ... with 2,466 more rows
```
]
.pull-right[

```r
get_sentiments("bing") 
```

```
## # A tibble: 6,788 x 2
##    word        sentiment
##    <chr>       <chr>    
##  1 2-faced     negative 
##  2 2-faces     negative 
##  3 a+          positive 
##  4 abnormal    negative 
##  5 abolish     negative 
##  6 abominable  negative 
##  7 abominably  negative 
##  8 abominate   negative 
##  9 abomination negative 
## 10 abort       negative 
## # ... with 6,778 more rows
```
]

---

## Sentiment lexicons

.pull-left[

```r
get_sentiments("nrc")
```

```
## # A tibble: 13,901 x 2
##    word        sentiment
##    <chr>       <chr>    
##  1 abacus      trust    
##  2 abandon     fear     
##  3 abandon     negative 
##  4 abandon     sadness  
##  5 abandoned   anger    
##  6 abandoned   fear     
##  7 abandoned   negative 
##  8 abandoned   sadness  
##  9 abandonment anger    
## 10 abandonment fear     
## # ... with 13,891 more rows
```
]
.pull-right[

```r
get_sentiments("loughran") 
```

```
## # A tibble: 4,149 x 2
##    word         sentiment
##    <chr>        <chr>    
##  1 abandon      negative 
##  2 abandoned    negative 
##  3 abandoning   negative 
##  4 abandonment  negative 
##  5 abandonments negative 
##  6 abandons     negative 
##  7 abdicated    negative 
##  8 abdicates    negative 
##  9 abdicating   negative 
## 10 abdication   negative 
## # ... with 4,139 more rows
```
…
```
## Joining, by = "word"
```

```r
song_sentiment
```

```
## # A tibble: 193 x 4
## # Groups:   track_n [16]
##    track_n sentiment word             n
##      <int> <chr>     <chr>        <int>
##  1       1 negative  embarrassing     1
##  2       1 positive  like             1
##  3       2 negative  excuse           1
##  4       2 negative  lying            1
##  5       2 negative  mess             1
##  6       2 positive  cool             1
##  7       2 positive  cute             1
##  8       2 positive  enough           1
##  9       2 positive  like             2
## 10       2 positive  love             1
## # ... with 183 more rows
```
…
* Count of total positive & negative words per song

```r
orange_words %>%  
  inner_join(get_sentiments("bing")) %>% # again, identify our sentiment via join
  count(track_n, sentiment) # Count pos/neg words by song
```

```
## Joining, by = "word"
```

```
## # A tibble: 31 x 3
##    track_n sentiment     n
##      <int> <chr>     <int>
##  1       1 negative      1
##  2       1 positive      1
##  3       2 negative      3
##  4       2 positive      6
##  5       3 negative      1
##  6       4 negative      2
##  7       4 positive      7
##  8       5 negative      4
##  9       5 positive     37
## 10       6 negative      2
## # ... with 21 more rows
```
…
```
## Joining, by = "word"
## Joining, by = "word"
```

```r
album_sentiment
```

```
## # A tibble: 890 x 7
##    artist  album    track_title       track_n  line word       sentiment
##    <chr>   <chr>    <chr>               <int> <int> <chr>      <chr>    
##  1 Beyonce Lemonade PRAY YOU CATCH ME       1     1 dishonesty negative 
##  2 Beyonce Lemonade PRAY YOU CATCH ME       1     5 lonely     negative 
##  3 Beyonce Lemonade PRAY YOU CATCH ME       1    13 hurt       negative 
##  4 Beyonce Lemonade PRAY YOU CATCH ME       1    13 like       positive 
##  5 Beyonce Lemonade PRAY YOU CATCH ME       1    13 smile      positive 
##  6 Beyonce Lemonade PRAY YOU CATCH ME       1    15 concern    negative 
##  7 Beyonce Lemonade PRAY YOU CATCH ME       1    15 ease       positive 
##  8 Beyonce Lemonade PRAY YOU CATCH ME       1    24 love       positive 
##  9 Beyonce Lemonade HOLD UP                 2     1 love       positive 
## 10 Beyonce Lemonade HOLD UP                 2     1 like       positive 
## # ... with 880 more rows
```
…
